"year","SPEI"
1957,1.00105376170571
1958,-0.531862620331967
1959,-2.01685117567574
1960,1.5140213056738
1961,0.484703511242282
1962,-0.897614361974355
1963,0.195610486757663
1964,-0.329381524468488
1965,-0.982138007396898
1966,0.100087894303409
1967,0.919108718221507
1968,0.976403234641451
1969,-1.73656080024846
1970,0.60830492741257
1971,-1.61847297057081
1972,-1.01522268056521
1973,0.448075007153927
1974,1.80752541823628
1975,-0.428147375568618
1976,-0.896511116735491
1977,-0.189720518123244
1978,-1.11356419994373
1979,-1.05673525456025
1980,-0.380742602534658
1981,0.709763584052144
1982,-0.220937019620962
1983,0.346639362951418
1984,1.42275610662909
1985,-0.930304006816779
1986,-0.15122414111856
1987,0.464807291943423
1988,-0.0362671114986339
1989,-1.15723537596819
1990,0.855854617697495
1991,0.0914738812990874
1992,0.986981676264546
1993,0.886960963511022
1994,1.30433687710868
1995,-0.679240046372742
1996,0.398813152758334
1997,-1.15046664400317
1998,2.25224395544595
1999,-0.544844421810992
2000,1.43793706239863
2001,1.49065035640798
2002,0.12095078043931
2003,-0.753769055921239
2004,-0.448151035229495
2005,-0.650232827356204
2006,-0.693441780774442
2007,-0.522265083553062
2008,0.524798426226749
2009,0.281260619736443
2010,0.604702370720788
2011,-1.30439392199505
2012,0.165830706210177
2013,1.44043053693534
2014,-1.52286183880102
2015,0.649709737088247
2016,-0.988510067785224
2017,1.01170996474674
2018,-1.9505285720858
2019,1.20206098379211
2020,-0.054031061755116
