 

The probability of the interval between the confidence bounds is 0.95.
"year","SPEI","trend","trendlowerbound","trendupperbound","30-yr average"
1958,0.0410273859590401,0.0740715592564269,-0.558420153812981,0.706563272325835, 
1959,-0.822492888713223,0.0835688451616048,-0.517811447054912,0.684949137378122, 
1960,-0.875023048525285,0.0927355119758734,-0.478540050037108,0.664011073988854, 
1961,-0.0302791457886309,0.101627978418988,-0.44061986158863,0.643875818426606, 
1962,0.943454731938755,0.110360520526623,-0.404015943895321,0.624736984948567, 
1963,0.764520224229482,0.119062186373688,-0.368690885010675,0.60681525775805, 
1964,-0.508971514182608,0.127830173890925,-0.334654532196129,0.590314879977979, 
1965,1.33378235534925,0.136736501141594,-0.301960111398396,0.575433113681584, 
1966,0.704128025119838,0.145859841911187,-0.270674517479611,0.562394201301985, 
1967,0.502764072315372,0.155233406255725,-0.240931315396089,0.551398127907539, 
1968,-0.0999736766897407,0.1648448777419,-0.212929596367429,0.542619351851228, 
1969,1.09366514877845,0.174647027686008,-0.18691901456678,0.536213069938797, 
1970,0.569857476544785,0.184564082147841,-0.163184883005342,0.532313047301024, 
1971,-0.72079102316602,0.194445536928897,-0.142081052736422,0.530972126594215, 
1972,0.738883768120247,0.204063233943349,-0.1240152908533,0.532141758739998, 
1973,0.0815547884021944,0.213133196510174,-0.109407744896987,0.535674137917336, 
1974,-1.26137201862529,0.221238047035892,-0.0987495178183512,0.541225611890135, 
1975,0.774868886631151,0.227777534638909,-0.092633144581478,0.548188213859296, 
1976,-1.80770616239111,0.231886557337695,-0.0917992660018642,0.555572380677254, 
1977,-0.197896245636794,0.232093707585674,-0.0973744528885936,0.561561868059941, 
1978,-0.0723859516664717,0.226226334128344,-0.11076265262019,0.563215320876877, 
1979,2.00772466749512,0.211280192683617,-0.125708794064916,0.54826917943215, 
1980,-0.762919133705766,0.196067525010941,-0.140921461737593,0.533056511759474, 
1981,1.36743835542058,0.1830245646474,-0.153964422101133,0.520013551395933, 
1982,-0.698724604318038,0.174025804708966,-0.162963182039568,0.511014791457499, 
1983,2.65119325837148,0.169547923273431,-0.167441063475102,0.506536910021964, 
1984,0.651504497001721,0.16905720102532,-0.167931785723214,0.506046187773853, 
1985,0.54232364317367,0.171405429619047,-0.165583557129487,0.50839441636758, 
1986,0.208405262858464,0.175638966867745,-0.161350019880788,0.512627953616278, 
1987,0.63873788876981,0.180640396946185,-0.156348589802349,0.517629383694718,0.258576634102348
1988,0.177626898032263,0.185275353625431,-0.151713633123102,0.522264340373965,0.263129951171455
1989,-0.201373076319972,0.188503427025327,-0.148485559723206,0.52549241377386,0.283833944917897
1990,-1.23074327533966,0.189055829139145,-0.147933157609388,0.526044815887678,0.271976604024084
1991,-1.09070574243589,0.185310554845532,-0.151678431903001,0.522299541594065,0.236629050802509
1992,0.391062147812833,0.175643198629406,-0.161345788119128,0.512632185377939,0.218215964664978
1993,-0.973774819461124,0.159422645300956,-0.177566341447577,0.496411632049489,0.160272796541958
1994,1.67185465212801,0.136713492043616,-0.200275494704918,0.473702478792149,0.232967002085645
1995,0.470198031076682,0.108585634693867,-0.228403352054666,0.4455746214424,0.204180857943226
1996,-1.22750846508964,0.0765949233998277,-0.260394063348706,0.413583910148361,0.139792974936244
1997,-0.331213588413091,0.0425185434121213,-0.294470443336412,0.379507530160655,0.111993719578628
1998,1.45560490076036,0.0084646549720137,-0.32852433177652,0.345453641720547,0.163846338826965
1999,0.416825859962966,-0.023909400392128,-0.360898387140661,0.313079586356405,0.141285029199782
2000,1.20441272009216,-0.0537946608149199,-0.390783647563453,0.283194325933613,0.162436870651362
2001,0.473534495884532,-0.0850716946541637,-0.414539855128431,0.244396465820104,0.20224772128638
2002,-0.468045268125222,-0.117240835210873,-0.440926658550432,0.206444988128687,0.162016753411531
2003,-0.415555171373657,-0.150264819930674,-0.470675499151061,0.170145859289713,0.145446421419003
2004,-1.05792820313039,-0.184036449801886,-0.504024014656129,0.135951115052357,0.152227881935499
2005,0.225530599364173,-0.218500611473925,-0.541041552881086,0.104040329933237,0.133916605693267
2006,0.818641312048654,-0.253602669050625,-0.581681193847274,0.0744758557460238,0.221461521507925
2007,-0.272846590409727,-0.289327463217679,-0.625854052882998,0.0471991264476397,0.218963176682161
2008,0.290915735052567,-0.325701267828628,-0.67345023298181,0.0220476973245547,0.231073232906129
2009,-0.609865604650364,-0.362748390804884,-0.724314433057673,-0.00118234855209531,0.143820223834613
2010,-0.334984750407081,-0.400496330218578,-0.778270804327907,-0.022721856109249,0.158084703277902
2011,-2.41321579056997,-0.438955653390853,-0.835120375042666,-0.0427909317390389,0.0320628984115506
2012,-0.549855486153331,-0.478111740761848,-0.894646100152646,-0.0615773813710495,0.0370252023503742
2013,-0.121221530299602,-0.517883727870811,-0.956580340410801,-0.0791871153308216,-0.0553886239386619
2014,-0.22741418707185,-0.55818569972627,-1.02067040581332,-0.0957009936392163,-0.0846859134077809
2015,-0.875010871379313,-0.598957273535224,-1.08671034491959,-0.111204202150862,-0.131930397226214
2016,0.335489373995043,-0.640156812323955,-1.1545332767459,-0.125780347902011,-0.127694260188328
2017,-1.21202499008415,-0.681749497447763,-1.22399733745538,-0.139501657440145,-0.189386356150126
2018,-0.229176420095005,-0.723733701576423,-1.2950092635894,-0.152458139563442,-0.202946466754369
2019,-0.12041643308418,-0.766103022969718,-1.36748331518624,-0.164722730753201,-0.200247911979842
2020,-2.24644512508162,-0.808875737268082,-1.44136745033749,-0.176384024198674,-0.234104640304574
